3 Results – NYC Housing Affordability and Vacancy Pattern Exploratory Data Analysis
…
    rent_burden = case_when(
      is.na(rent_to_income) ~ NA_character_,
      rent_to_income < 0.30 ~ "Not Rent Burdened",
      rent_to_income < 0.50 ~ "Moderately Rent Burdened",
      rent_to_income >= 0.50 ~ "Severely Rent Burdened"
    )
  )

df21

# A tibble: 7,089 × 9
    control rent_amount  boro hh_income    fw annual_rent income_for_burden
      <dbl>       <dbl> <dbl>     <dbl> <dbl>       <dbl>             <dbl>
 1 12100003         228     1      2000  154.        2736              2000
 2 12100005        1172     2      3696  265.       14064              3696
 3 12100008        2100     4     65480  431.       25200             65480
 4 12100010        1065     3     30000  200.       12780             30000
 5 12100013        1169     4     10000 1195.       14028             10000
 6 12100015        1000     5     68366  432.       12000             68366
 7 12100016        1529     1     12800  442.       18348             12800
 8 12100018         250     1         0  154.        3000                NA
 9 12100022        1500     1     10400  442.       18000             10400
10 12100038         607     2     15600  446.        7284             15600
# ℹ 7,079 more rows
# ℹ 2 more variables: rent_to_income <dbl>, rent_burden <chr>
…
dfall_boro_index <- dfall_boro |>
  group_by(boro) |>
  mutate(
    rent_index = rent / rent[year == 1991] * 100,
    inc_index  = inc  / inc[year == 1991] * 100,
    rti = rent / inc
  ) |>
  ungroup()

dfall_boro_index

# A tibble: 55 × 7
    year  boro  rent    inc rent_index inc_index    rti
   <dbl> <dbl> <dbl>  <dbl>      <dbl>     <dbl>  <dbl>
 1  1991     1  454. 24660.       100       100  0.0184
 2  1993     1  495. 25431.       109.      103. 0.0195
 3  1996     1  570. 28132.       126.      114. 0.0203
 4  2002     1  699. 36737.       154.      149. 0.0190
 5  2005     1  817. 40033.       180.      162. 0.0204
 6  2008     1  941. 44122.       207.      179. 0.0213
 7  2011     1 1062. 44431.       234.      180. 0.0239
 8  2014     1 1148. 46285.       253.      188. 0.0248
 9  2017     1 1218. 50742.       268.      206. 0.0240
10  2021     1 1174. 56878.       259.      231. 0.0206
# ℹ 45 more rows
…
df_all_boro_final

# A tibble: 55 × 8
    year boro   rent    inc rent_index inc_index    rti vacancy_rate
   <dbl> <chr> <dbl>  <dbl>      <dbl>     <dbl>  <dbl>        <dbl>
 1  1991 Bronx  454. 24660.       100       100  0.0184      0.0334 
 2  1993 Bronx  495. 25431.       109.      103. 0.0195      0.0330 
 3  1996 Bronx  570. 28132.       126.      114. 0.0203      0.0442 
 4  2002 Bronx  699. 36737.       154.      149. 0.0190      0.0260 
 5  2005 Bronx  817. 40033.       180.      162. 0.0204      0.0206 
 6  2008 Bronx  941. 44122.       207.      179. 0.0213      0.0259 
 7  2011 Bronx 1062. 44431.       234.      180. 0.0239      0.0261 
 8  2014 Bronx 1148. 46285.       253.      188. 0.0248      0.0303 
 9  2017 Bronx 1218. 50742.       268.      206. 0.0240      0.0213 
10  2021 Bronx 1174. 56878.       259.      231. 0.0206      0.00614
# ℹ 45 more rows
…
